Cyclist-Bike-Share-Analysis
…
Saturday being the highest.

More casual riders are seen on weekends.

Hourly Distribution

rides %>%
  group_by(hour) %>% 
  summarise(count = length(ride_id),
            '%' = (length(ride_id) / nrow(rides)) * 100,
            'members_p' = (sum(member_casual == "member") / length(ride_id)) * 100,
            'casual_p' = (sum(member_casual == "casual") / length(ride_id)) * 100,
            '% Difference' = members_p - casual_p)

## # A tibble: 24 x 6
##     hour  count   `%` members_p casual_p `% Difference`
##    <int>  <int> <dbl>     <dbl>    <dbl>          <dbl>
##  1     0  41924 1.20       33.4     66.6          -33.2
##  2     1  26372 0.756      29.5     70.5          -41.1
##  3     2  15386 0.441      27.5     72.5          -45.1
##  4     3   9038 0.259      27.6     72.4          -44.7
##  5     4   7391 0.212      41.3     58.7          -17.5
##  6     5  17987 0.515      75.0     25.0           50.0
##  7     6  56915 1.63       81.5     18.5           63.0
##  8     7 106045 3.04       81.6     18.4           63.2
##  9     8 133253 3.82       78.4     21.6           56.8
## 10     9 123699 3.54       72.0     28.0           44.0
## # ... with 14 more rows
…
